{
    "map_name": "Haunted House V2",
    "map_path": "map_files/Haunted_House_V2",
    "map_file": "Haunted_House_V2.dmm",
    "survivor_types": [
        "Survivor - LV-624 Archeologist"
    ],
    "map_item_type": "/obj/item/map/lazarus_landing_map",
    "announce_text": "OOPS! The Round has been set as distress not extended! The round will shortly end because of that.",
    "monkey_types": [
        "monkey"
    ],
    "traits": [{ "Ground": true }]
}
